{
  "routes": [
    {
      "method": "GET",
      "path": "/datasheets",
      "handler": "datasheet.find",
      "config": {
        "policies": []
      }
    },
    {
      "method": "GET",
      "path": "/datasheets/count",
      "handler": "datasheet.count",
      "config": {
        "policies": []
      }
    },
    {
      "method": "GET",
      "path": "/datasheets/:id",
      "handler": "datasheet.findOne",
      "config": {
        "policies": []
      }
    },
    {
      "method": "POST",
      "path": "/datasheets",
      "handler": "datasheet.create",
      "config": {
        "policies": []
      }
    },
    {
      "method": "PUT",
      "path": "/datasheets/:id",
      "handler": "datasheet.update",
      "config": {
        "policies": []
      }
    },
    {
      "method": "DELETE",
      "path": "/datasheets/:id",
      "handler": "datasheet.delete",
      "config": {
        "policies": []
      }
    }
  ]
}
